{
  "name": "Family Tree",
  "children": [
    {
      "name": "Swedish Person",
      "children": [ 
        {
          "name": "Bobby Swede",
          "size": "100"
        }
      ]
    },
        {
      "name": "Swedish Person",
      "children": [ 
        {
          "name": "Bobby Swede",
          "size": "100",
          "children": [ 
            {
              "name": "Bobby Swede",
              "size": "100"
            }
          ]
        }
      ]
    },
        {
      "name": "Swedish Person",
      "children": [ 
            {
      "name": "Swedish Person",
      "children": [ 
        {
          "name": "Bobby Swede",
          "size": "100"
        }
      ]
    },
            {
      "name": "Swedish Person",
      "children": [ 
        {
          "name": "Bobby Swede",
          "size": "100"
        }
      ]
    },
        {
          "name": "Bobby Swede",
          "size": "100"
        }
      ]
    },
        {
      "name": "Swedish Person",
      "children": [ 
        {
          "name": "Bobby Swede",
          "size": "100"
        }
      ]
    },
        {
      "name": "Swedish Person",
      "children": [ 
        {
          "name": "Bobby Swede",
          "size": "100"
        }
      ]
    },
    {
      "name": "Swedish ho",
      "children": [
        { 
          "name": "Bobby Swede"
        }
      ]
    }
  ]
}